<?xml version="1.0" encoding="utf-8"?>
<!-- Generator: Adobe Illustrator 24.3.0, SVG Export Plug-In . SVG Version: 6.00 Build 0)  -->
<svg version="1.1" id="Capa_1" xmlns="http://www.w3.org/2000/svg" xmlns:xlink="http://www.w3.org/1999/xlink" x="0px" y="0px"
	 width="100px" height="51px" viewBox="0 0 100 51" style="enable-background:new 0 0 100 51;" xml:space="preserve">
<style type="text/css">
	.st0{fill:#FFFFFF;}
</style>
<g>
	<polygon class="st0" points="48.6,51 48.6,26.6 73,2.2 97.4,26.6 97.4,51 	"/>
	<polyline class="st0" points="48.6,26.5 48.6,2.3 -0.1,2.3 -0.2,50.9 24.3,50.9 48.6,26.5 	"/>
	<g>
		<path class="st0" d="M94.3,1.7c-2.1,0-3.7,1.7-3.7,3.8c0,2,1.7,3.8,3.7,3.8c2.1,0,3.8-1.7,3.8-3.8C98.1,3.4,96.4,1.7,94.3,1.7z
			 M94.3,8.5c-1.7,0-3-1.3-3-3c0-1.7,1.3-3,3-3c1.7,0,3,1.3,3,3C97.3,7.1,96,8.5,94.3,8.5z"/>
		<path class="st0" d="M95.9,4.6c0-0.7-0.5-1.2-1.2-1.2h-1.9v4.1h0.8V5.8h0.9l0.7,1.7H96l-0.8-1.8C95.7,5.5,95.9,5.1,95.9,4.6z
			 M94.6,5.1h-0.9V4.1h0.9c0.4,0,0.6,0.2,0.6,0.5C95.1,4.9,94.9,5.1,94.6,5.1z"/>
	</g>
</g>
</svg>
